1024 * 50 = 51.200 MB

2 mb downloading per 1 sec.
1 mb downloading per 1/2 sec.
51.200 mb downloading per 1 * 51.200 / 2
____________________________________________
							25600 sec

60 sec. = 1 min
1 sec = 1/60 min
25600 sec = 1 * 25600 / 60 min
_____________________________________________
					42666 min

60 min = 1 hour
1 min 1/60 h
426.66 min = 1*426.66 / 60
--------------------------------------------
 					7 h 11 min